<?xml version="1.0" encoding="UTF-8"?>
<svg width="40px" height="40px" viewBox="0 0 1024 1024" version="1.1" xmlns="http://www.w3.org/2000/svg" xmlns:xlink="http://www.w3.org/1999/xlink">
    <!-- Generator: Sketch 53 (72520) - https://sketchapp.com -->
    <title>plus-circle-o</title>
    <desc>Created with Sketch.</desc>
    <g id="plus-circle-o" stroke="none" stroke-width="1" fill="none" fill-rule="evenodd">
        <g id="My-location" transform="translate(0.000000, 1.000000)" fill="#4789FF" fill-rule="nonzero">
            <g id="Group">
                <g id="Group-2">
                    <circle id="Oval" fill-opacity="0.5" cx="512" cy="512" r="512"></circle>
                    <circle id="Oval" stroke="#FFFFFF" stroke-width="61.44" cx="512" cy="504" r="285"></circle>
                </g>
            </g>
        </g>
    </g>
</svg>