<?xml version="1.0" encoding="UTF-8"?>
<svg width="20px" height="20px" viewBox="0 0 20 20" version="1.1" xmlns="http://www.w3.org/2000/svg" xmlns:xlink="http://www.w3.org/1999/xlink">
    <!-- Generator: Sketch 52.3 (67297) - http://www.bohemiancoding.com/sketch -->
    <title>Icon/Small close-o</title>
    <desc>Created with Sketch.</desc>
    <defs>
        <path d="M19.9707031,18.0210278 L27.5425122,10.4492188 C28.091687,9.90004396 28.9820752,9.90004396 29.53125,10.4492188 C30.0804248,10.9983935 30.0804248,11.8887818 29.53125,12.4379566 L21.9594409,20.0097656 L29.53125,27.5815747 C30.0804248,28.1307495 30.0804248,29.0211377 29.53125,29.5703125 C28.9820752,30.1194873 28.091687,30.1194873 27.5425122,29.5703125 L19.9707031,21.9985034 L12.3988941,29.5703125 C11.8497193,30.1194873 10.959331,30.1194873 10.4101562,29.5703125 C9.86098146,29.0211377 9.86098146,28.1307495 10.4101562,27.5815747 L17.9819653,20.0097656 L10.4101562,12.4379566 C9.86098146,11.8887818 9.86098146,10.9983935 10.4101562,10.4492188 C10.959331,9.90004396 11.8497193,9.90004396 12.3988941,10.4492188 L19.9707031,18.0210278 Z" id="path-1"></path>
    </defs>
    <g id="Page-1" stroke="none" stroke-width="1" fill="none" fill-rule="evenodd">
        <g id="-" transform="translate(-332.000000, -185.000000)">
            <g id="Icon/Small-close-o" transform="translate(322.000000, 175.000000)">
                <g>
                    <rect id="Rectangle-1" fill="#000000" opacity="0" x="0" y="0" width="40" height="40"></rect>
                    <mask id="mask-2" fill="white">
                        <use xlink:href="#path-1"></use>
                    </mask>
                    <use id="Combined-Shape" fill="#000000" xlink:href="#path-1"></use>
                </g>
            </g>
        </g>
    </g>
</svg>