<?xml version="1.0" encoding="UTF-8"?>
<svg width="1024px" height="1024px" viewBox="0 0 1024 1024" version="1.1" xmlns="http://www.w3.org/2000/svg" xmlns:xlink="http://www.w3.org/1999/xlink">
    <!-- Generator: Sketch 52.3 (67297) - http://www.bohemiancoding.com/sketch -->
    <title>Icon/full screen-o</title>
    <desc>Created with Sketch.</desc>
    <defs>
        <path d="M887.434496,187.638907 L669.504657,406.406938 C655.472792,420.492771 632.678895,420.536521 618.593062,406.504657 C604.507229,392.472792 604.463479,369.678895 618.495343,355.593062 L836.553849,136.69587 L628,136.69587 C608.117749,136.69587 592,120.578121 592,100.69587 C592,80.8136188 608.117749,64.6958698 628,64.6958698 L923.434496,64.6958698 C943.316747,64.6958698 959.434496,80.8136188 959.434496,100.69587 L959.434496,395.028203 C959.434496,414.910454 943.316747,431.028203 923.434496,431.028203 C903.552245,431.028203 887.434496,414.910454 887.434496,395.028203 L887.434496,187.638907 Z M187.393198,889.123685 L395,889.123685 C414.882251,889.123685 431,905.241434 431,925.123685 C431,945.005936 414.882251,961.123685 395,961.123685 L100,961.123685 C80.117749,961.123685 64,945.005936 64,925.123685 L64,629.30913 C64,609.426879 80.117749,593.30913 100,593.30913 C119.882251,593.30913 136,609.426879 136,629.30913 L136,838.696354 L355.451421,617.637229 C369.458893,603.527139 392.25268,603.44395 406.362771,617.451421 C420.472861,631.458893 420.55605,654.25268 406.548579,668.362771 L187.393198,889.123685 Z M888.186551,629.421126 C888.186551,609.538875 904.3043,593.421126 924.186551,593.421126 C944.068802,593.421126 960.186551,609.538875 960.186551,629.421126 L960.186551,924.779689 C960.186551,944.66194 944.068802,960.779689 924.186551,960.779689 L628,960.779689 C608.117749,960.779689 592,944.66194 592,924.779689 C592,904.897438 608.117749,888.779689 628,888.779689 L888.186551,888.779689 L888.186551,629.421126 Z M136,136.741958 L136,394.552879 C136,414.43513 119.882251,430.552879 100,430.552879 C80.117749,430.552879 64,414.43513 64,394.552879 L64,100.741958 C64,80.8597067 80.117749,64.7419577 100,64.7419577 L395,64.7419577 C414.882251,64.7419577 431,80.8597067 431,100.741958 C431,120.624209 414.882251,136.741958 395,136.741958 L136,136.741958 Z" id="path-1"></path>
    </defs>
    <g id="Icon/full-screen-o" stroke="none" stroke-width="1" fill="none" fill-rule="evenodd">
        <mask id="mask-2" fill="white">
            <use xlink:href="#path-1"></use>
        </mask>
        <use id="Combined-Shape" fill="#979797" fill-rule="nonzero" xlink:href="#path-1"></use>
        <g id="🎨Colour/Primary-colour/Black" mask="url(#mask-2)" fill="#424A50">
            <rect id="Rectangle-1" x="0" y="0" width="1024" height="1024"></rect>
        </g>
    </g>
</svg>