<?xml version="1.0" encoding="UTF-8"?>
<svg width="56px" height="60px" viewBox="0 0 56 60" version="1.1" xmlns="http://www.w3.org/2000/svg" xmlns:xlink="http://www.w3.org/1999/xlink">
    <!-- Generator: Sketch 52.5 (67469) - http://www.bohemiancoding.com/sketch -->
    <title>Mailbox Icon</title>
    <desc>Created with Sketch.</desc>
    <defs>
        <path d="M31.591244,45.8333333 L25.3789553,54.2224598 L19.1666667,45.8333333 L0,45.8333333 L0,0 L50,0 L50,45.8333333 L31.591244,45.8333333 Z" id="path-1"></path>
        <filter x="-11.0%" y="-6.5%" width="122.0%" height="120.3%" filterUnits="objectBoundingBox" id="filter-2">
            <feOffset dx="0" dy="2" in="SourceAlpha" result="shadowOffsetOuter1"></feOffset>
            <feGaussianBlur stdDeviation="1.5" in="shadowOffsetOuter1" result="shadowBlurOuter1"></feGaussianBlur>
            <feColorMatrix values="0 0 0 0 0.478103741   0 0 0 0 0.478103741   0 0 0 0 0.478103741  0 0 0 0.5 0" type="matrix" in="shadowBlurOuter1"></feColorMatrix>
        </filter>
        <path d="M9.11325099,25.0883789 L9.0652524,18.836561 L3.828125,18.836561 C2.79259109,18.836561 1.953125,17.9866015 1.953125,16.9381235 L1.953125,3.95507812 L18.0447243,3.95507812 L18.0447243,16.9381235 C18.0447243,17.9866015 17.2052582,18.836561 16.1697243,18.836561 L10.940309,18.836561 L10.9883076,25.0883789 L15.2664003,25.0883789 C15.7841673,25.0883789 16.2039003,25.5133586 16.2039003,26.0375977 C16.2039003,26.5618367 15.7841673,26.9868164 15.2664003,26.9868164 L10.0589885,26.9868164 C10.0582718,26.9868172 10.0575554,26.9868172 10.0568391,26.9868164 L4.73849266,26.9868164 C4.2207257,26.9868164 3.80099266,26.5618367 3.80099266,26.0375977 C3.80099266,25.5133586 4.2207257,25.0883789 4.73849266,25.0883789 L9.11325099,25.0883789 Z M6.81526177,9.21533203 L13.1755648,9.21533203 C13.6933318,9.21533203 14.1130648,8.79035232 14.1130648,8.26611328 C14.1130648,7.74187424 13.6933318,7.31689453 13.1755648,7.31689453 L6.81526177,7.31689453 C6.29749482,7.31689453 5.87776177,7.74187424 5.87776177,8.26611328 C5.87776177,8.79035232 6.29749482,9.21533203 6.81526177,9.21533203 Z M0,1.50292969 C0,0.672884542 0.664577318,2.99760217e-15 1.484375,2.99760217e-15 L18.5134743,0 C19.333272,4.06817437e-15 19.9978493,0.672884542 19.9978493,1.50292969 C19.9978493,2.33297483 19.333272,3.00585937 18.5134743,3.00585937 L1.484375,3.00585937 C0.664577318,3.00585937 0,2.33297483 0,1.50292969 Z" id="path-3"></path>
    </defs>
    <g id="Page-1" stroke="none" stroke-width="1" fill="none" fill-rule="evenodd">
        <g id="Icons" transform="translate(-449.000000, -580.000000)">
            <g id="Mailbox-Icon" transform="translate(452.000000, 581.000000)">
                <g id="Loc-1-Copy-10">
                    <g id="Holder">
                        <g id="Combined-Shape">
                            <use fill="black" fill-opacity="1" filter="url(#filter-2)" xlink:href="#path-1"></use>
                            <use fill="#FFFFFF" fill-rule="evenodd" xlink:href="#path-1"></use>
                        </g>
                    </g>
                    <circle id="Oval" fill="#D70000" cx="25" cy="23.3333333" r="14.1666667"></circle>
                    <rect id="Rectangle" fill="#FFFFFF" x="0" y="0" width="50" height="45.8333333"></rect>
                </g>
                <g id="A_MGFjZjlkZDY2YjhlM2JmOZ2XdH9be6cbswWLZYjimWdB-YQuABGZ8KTnEQtOfBbcrQ7it00w_vJv8Z7vD1a2F_mg3JyH1Cm-V73CEVV3v3SFqLvxIqYrESk2gNO7OfV9Cs85SS9QFo_ijY1KUUcWtOT8dJwrzXU-t4vWY6mmiap4SsKo4V2gYFa7TD3VITodVn7qWjeL0B0dMQ0952scjty7PmO0pX55dXlNlzq1FWA=" transform="translate(15.000000, 10.000000)">
                    <g id="Combined-Shape" fill="#979797" fill-rule="nonzero">
                        <path d="M9.11325099,25.0883789 L9.0652524,18.836561 L3.828125,18.836561 C2.79259109,18.836561 1.953125,17.9866015 1.953125,16.9381235 L1.953125,3.95507812 L18.0447243,3.95507812 L18.0447243,16.9381235 C18.0447243,17.9866015 17.2052582,18.836561 16.1697243,18.836561 L10.940309,18.836561 L10.9883076,25.0883789 L15.2664003,25.0883789 C15.7841673,25.0883789 16.2039003,25.5133586 16.2039003,26.0375977 C16.2039003,26.5618367 15.7841673,26.9868164 15.2664003,26.9868164 L10.0589885,26.9868164 C10.0582718,26.9868172 10.0575554,26.9868172 10.0568391,26.9868164 L4.73849266,26.9868164 C4.2207257,26.9868164 3.80099266,26.5618367 3.80099266,26.0375977 C3.80099266,25.5133586 4.2207257,25.0883789 4.73849266,25.0883789 L9.11325099,25.0883789 Z M6.81526177,9.21533203 L13.1755648,9.21533203 C13.6933318,9.21533203 14.1130648,8.79035232 14.1130648,8.26611328 C14.1130648,7.74187424 13.6933318,7.31689453 13.1755648,7.31689453 L6.81526177,7.31689453 C6.29749482,7.31689453 5.87776177,7.74187424 5.87776177,8.26611328 C5.87776177,8.79035232 6.29749482,9.21533203 6.81526177,9.21533203 Z M0,1.50292969 C0,0.672884542 0.664577318,2.99760217e-15 1.484375,2.99760217e-15 L18.5134743,0 C19.333272,4.06817437e-15 19.9978493,0.672884542 19.9978493,1.50292969 C19.9978493,2.33297483 19.333272,3.00585937 18.5134743,3.00585937 L1.484375,3.00585937 C0.664577318,3.00585937 0,2.33297483 0,1.50292969 Z" id="path-1"></path>
                    </g>
                    <g id="🎨Colour/Primary-colour/Black-Clipped">
                        <mask id="mask-4" fill="white">
                            <use xlink:href="#path-3"></use>
                        </mask>
                        <use id="path-1" fill="#D8D8D8" xlink:href="#path-3"></use>
                        <g id="🎨Colour/Primary-colour/Black" mask="url(#mask-4)" fill="#76818A">
                            <g transform="translate(-3.333333, 0.000000)" id="Rectangle-1">
                                <rect x="0" y="0" width="26.6666667" height="27"></rect>
                            </g>
                        </g>
                    </g>
                </g>
            </g>
        </g>
    </g>
</svg>