<?xml version="1.0" encoding="UTF-8"?>
<svg width="35px" height="37px" viewBox="0 0 35 37" version="1.1" xmlns="http://www.w3.org/2000/svg" xmlns:xlink="http://www.w3.org/1999/xlink">
    <!-- Generator: Sketch 52.3 (67297) - http://www.bohemiancoding.com/sketch -->
    <title>Icon/Calendar-s</title>
    <desc>Created with Sketch.</desc>
    <defs>
        <path d="M13.1171875,7.3125 L5.8125,7.3125 L5.8125,13.328125 L35.1875,13.328125 L35.1875,7.3125 L27.921875,7.3125 L27.921875,8.09375 C27.921875,8.87040043 27.2922754,9.5 26.515625,9.5 C25.7389746,9.5 25.109375,8.87040043 25.109375,8.09375 L25.109375,7.3125 L15.9296875,7.3125 L15.9296875,8.09375 C15.9296875,8.87040043 15.3000879,9.5 14.5234375,9.5 C13.7467871,9.5 13.1171875,8.87040043 13.1171875,8.09375 L13.1171875,7.3125 Z M15.9296875,4.5 L25.109375,4.5 L25.109375,3.40625 C25.109375,2.62959957 25.7389746,2 26.515625,2 C27.2922754,2 27.921875,2.62959957 27.921875,3.40625 L27.921875,4.5 L35.1875,4.5 C36.7408009,4.5 38,5.75919914 38,7.3125 L38,35.4765625 C38,37.0298634 36.7408009,38.2890625 35.1875,38.2890625 L5.8125,38.2890625 C4.25919914,38.2890625 3,37.0298634 3,35.4765625 L3,7.3125 C3,5.75919914 4.25919914,4.5 5.8125,4.5 L13.1171875,4.5 L13.1171875,3.40625 C13.1171875,2.62959957 13.7467871,2 14.5234375,2 C15.3000879,2 15.9296875,2.62959957 15.9296875,3.40625 L15.9296875,4.5 Z M11.90625,20.7890625 C11.1295996,20.7890625 10.5,21.4186621 10.5,22.1953125 C10.5,22.9719629 11.1295996,23.6015625 11.90625,23.6015625 L29.09375,23.6015625 C29.8704004,23.6015625 30.5,22.9719629 30.5,22.1953125 C30.5,21.4186621 29.8704004,20.7890625 29.09375,20.7890625 L11.90625,20.7890625 Z M11.90625,25.7890625 C11.1295996,25.7890625 10.5,26.4186621 10.5,27.1953125 C10.5,27.9719629 11.1295996,28.6015625 11.90625,28.6015625 L29.09375,28.6015625 C29.8704004,28.6015625 30.5,27.9719629 30.5,27.1953125 C30.5,26.4186621 29.8704004,25.7890625 29.09375,25.7890625 L11.90625,25.7890625 Z" id="path-1"></path>
    </defs>
    <g id="Page-1" stroke="none" stroke-width="1" fill="none" fill-rule="evenodd">
        <g id="Artboard" transform="translate(-394.000000, -154.000000)">
            <g id="Icon/calendar-o" transform="translate(391.000000, 152.000000)">
                <mask id="mask-2" fill="white">
                    <use xlink:href="#path-1"></use>
                </mask>
                <use id="Combined-Shape" fill="#000000" fill-rule="nonzero" xlink:href="#path-1"></use>
            </g>
        </g>
    </g>
</svg>