<?xml version="1.0" encoding="UTF-8"?>
<svg width="623px" height="360px" viewBox="0 0 623 360" version="1.1" xmlns="http://www.w3.org/2000/svg" xmlns:xlink="http://www.w3.org/1999/xlink">
    <!-- Generator: Sketch 52.3 (67297) - http://www.bohemiancoding.com/sketch -->
    <title>Group 2</title>
    <desc>Created with Sketch.</desc>
    <defs>
        <linearGradient x1="0%" y1="50%" x2="100%" y2="50%" id="linearGradient-1">
            <stop stop-color="#DF1075" offset="0%"></stop>
            <stop stop-color="#DF103A" offset="77.6103252%"></stop>
            <stop stop-color="#DC0000" offset="100%"></stop>
        </linearGradient>
        <linearGradient x1="100%" y1="20.3020738%" x2="0%" y2="20.3020738%" id="linearGradient-2">
            <stop stop-color="#D0D0D0" offset="0%"></stop>
            <stop stop-color="#A3A3A3" offset="100%"></stop>
        </linearGradient>
        <linearGradient x1="50%" y1="0%" x2="50%" y2="100%" id="linearGradient-3">
            <stop stop-color="#F0117C" offset="0%"></stop>
            <stop stop-color="#DD0746" offset="100%"></stop>
        </linearGradient>
    </defs>
    <g id="Page-1" stroke="none" stroke-width="1" fill="none" fill-rule="evenodd">
        <g id="10-sucess" transform="translate(-263.000000, -419.000000)">
            <g id="1.1-copy-10" transform="translate(97.000000, 412.000000)">
                <g id="Group-2" transform="translate(166.000000, 7.000000)">
                    <path d="M449.166811,80.5044299 C448.617227,83.1806623 449.425659,84.3204429 451.592104,83.9237716 C453.758549,83.5271003 454.46309,85.0539864 453.705726,88.5044299" id="Path-2-Copy-7" stroke="url(#linearGradient-1)" stroke-width="3" stroke-linecap="round"></path>
                    <path d="M534.166811,350.535519 C533.617227,353.211751 534.425659,354.351532 536.592104,353.954861 C538.758549,353.558189 539.46309,355.085075 538.705726,358.535519" id="Path-2-Copy-8" stroke="url(#linearGradient-1)" stroke-width="3" stroke-linecap="round"></path>
                    <path d="M183.571145,154.50443 C181.597139,163.837763 184.74009,168.50443 193,168.50443" id="Path-4-Copy-6" stroke="url(#linearGradient-1)" stroke-width="3" stroke-linecap="round" transform="translate(188.000000, 161.504430) scale(-1, -1) translate(-188.000000, -161.504430) "></path>
                    <path d="M370.228458,58.5044299 C369.438855,63.1710966 370.696036,65.5044299 374,65.5044299" id="Path-4-Copy-12" stroke="url(#linearGradient-2)" stroke-width="5" stroke-linecap="round" transform="translate(372.000000, 62.004430) scale(-1, -1) translate(-372.000000, -62.004430) "></path>
                    <path d="M123.090402,137.135787 L117.604292,144.429267 C117.405098,144.694085 117.458296,145.070241 117.723114,145.269435 C117.802571,145.329202 117.895635,145.368286 117.99394,145.383175 L130.528262,147.281531 C130.855897,147.331152 131.161723,147.105778 131.211344,146.778144 C131.235767,146.616883 131.193489,146.452629 131.094245,146.3232 L124.046032,137.131364 C123.844395,136.868402 123.467763,136.818688 123.204801,137.020325 C123.161608,137.053445 123.123122,137.092289 123.090402,137.135787 Z" id="Path-5-Copy-10" fill="url(#linearGradient-1)" transform="translate(124.500000, 142.004430) scale(-1, -1) translate(-124.500000, -142.004430) "></path>
                    <path d="M547.090402,167.135787 L541.604292,174.429267 C541.405098,174.694085 541.458296,175.070241 541.723114,175.269435 C541.802571,175.329202 541.895635,175.368286 541.99394,175.383175 L554.528262,177.281531 C554.855897,177.331152 555.161723,177.105778 555.211344,176.778144 C555.235767,176.616883 555.193489,176.452629 555.094245,176.3232 L548.046032,167.131364 C547.844395,166.868402 547.467763,166.818688 547.204801,167.020325 C547.161608,167.053445 547.123122,167.092289 547.090402,167.135787 Z" id="Path-5-Copy-14" fill="url(#linearGradient-1)" transform="translate(548.500000, 172.004430) scale(-1, -1) translate(-548.500000, -172.004430) "></path>
                    <path d="M57.4544591,352.218988 L54.5578414,356.303268 C54.3661453,356.573563 54.4298622,356.948081 54.7001569,357.139777 C54.7751376,357.192954 54.8613343,357.228192 54.9520943,357.242771 L61.5701056,358.305833 C61.8972823,358.358388 62.2051157,358.135763 62.2576706,357.808586 C62.2829035,357.6515 62.2447134,357.490825 62.1514987,357.361892 L58.4301051,352.21455 C58.235958,351.94601 57.8608762,351.885703 57.5923366,352.079851 C57.539066,352.118364 57.4924862,352.165369 57.4544591,352.218988 Z" id="Path-5-Copy-20" fill="url(#linearGradient-1)" transform="translate(58.500000, 355.035519) scale(1, -1) translate(-58.500000, -355.035519) "></path>
                    <path d="M286.454459,85.1878992 L283.557841,89.2721795 C283.366145,89.5424743 283.429862,89.9169919 283.700157,90.1086879 C283.775138,90.1618651 283.861334,90.197103 283.952094,90.2116819 L290.570106,91.2747437 C290.897282,91.3272986 291.205116,91.1046736 291.257671,90.7774969 C291.282903,90.6204115 291.244713,90.4597356 291.151499,90.3308033 L287.430105,85.1834612 C287.235958,84.9149215 286.860876,84.8546145 286.592337,85.0487616 C286.539066,85.0872749 286.492486,85.1342804 286.454459,85.1878992 Z" id="Path-5-Copy-13" fill="url(#linearGradient-2)" transform="translate(287.500000, 88.004430) scale(-1, -1) translate(-287.500000, -88.004430) "></path>
                    <path d="M74.7567169,274.253039 L70.5074114,280.672603 C70.324507,280.948923 70.400235,281.321198 70.6765547,281.504102 C70.745894,281.55 70.8240167,281.580984 70.9059656,281.595088 L80.6145135,283.26598 C80.9410831,283.322185 81.2513827,283.10301 81.307587,282.776441 C81.3338246,282.62399 81.3001676,282.467296 81.2136414,282.339067 L75.754399,274.24861 C75.5690484,273.973925 75.1961159,273.901506 74.921431,274.086856 C74.8561526,274.130905 74.8001839,274.187372 74.7567169,274.253039 Z" id="Path-5-Copy-15" fill="url(#linearGradient-2)"></path>
                    <polygon id="Path-5-Copy-8" stroke="url(#linearGradient-1)" stroke-width="1.8" stroke-linecap="round" stroke-linejoin="round" transform="translate(67.000000, 124.535519) scale(1, -1) translate(-67.000000, -124.535519) " points="66.3768703 120.535519 62 126.883308 72 128.535519"></polygon>
                    <polygon id="Path-5-Copy-18" stroke="url(#linearGradient-1)" stroke-width="1.8" stroke-linecap="round" stroke-linejoin="round" transform="translate(522.500000, 108.004430) scale(-1, -1) translate(-522.500000, -108.004430) " points="521.440679 101.50443 514 111.819587 531 114.50443"></polygon>
                    <polygon id="Path-5-Copy-9" stroke="url(#linearGradient-2)" stroke-width="1.8" stroke-linecap="round" stroke-linejoin="round" transform="translate(472.795663, 51.511841) scale(1, -1) rotate(-30.000000) translate(-472.795663, -51.511841) " points="472.202118 47.7017516 468.033052 53.7481621 477.558274 55.3219297"></polygon>
                    <polygon id="Path-5-Copy-16" stroke="url(#linearGradient-2)" stroke-width="1.8" stroke-linecap="round" stroke-linejoin="round" transform="translate(163.597477, 111.658373) scale(1, -1) rotate(145.000000) translate(-163.597477, -111.658373) " points="163.003932 107.848284 158.834865 113.894695 168.360088 115.468462"></polygon>
                    <polygon id="Path-5-Copy-19" stroke="url(#linearGradient-2)" stroke-width="1.8" stroke-linecap="round" stroke-linejoin="round" transform="translate(203.086680, 314.388283) scale(1, -1) rotate(145.000000) translate(-203.086680, -314.388283) " points="202.493135 310.578194 198.324069 316.624604 207.849291 318.198372"></polygon>
                    <path d="" id="Path-6-Copy-2" stroke="#DD0746"></path>
                    <path d="M179.685037,59.9740641 L160.634592,59.3125069 C162.027961,65.5884082 165.133435,68.7263589 169.951012,68.7263589 C174.76859,68.7263589 178.013265,65.8089273 179.685037,59.9740641 Z" id="Path-7-Copy-15" stroke="url(#linearGradient-1)" stroke-width="1.8" stroke-linecap="round" stroke-linejoin="round" transform="translate(170.159814, 64.019433) scale(1, -1) rotate(120.000000) translate(-170.159814, -64.019433) "></path>
                    <path d="M247.086651,127.350881 L235.538288,127.254524 C234.544204,127.246231 233.731616,128.045372 233.723323,129.039456 C233.721271,129.285404 233.769645,129.529164 233.865461,129.75569 C235.308635,133.167621 237.755475,134.873587 241.205982,134.873587 C244.630404,134.873587 247.127441,133.223746 248.697094,129.924066 L248.697111,129.924074 C249.124158,129.026348 248.742597,127.952408 247.844871,127.525361 C247.607873,127.412622 247.349088,127.353071 247.086651,127.350881 Z" id="Path-7-Copy-18" fill="url(#linearGradient-2)" transform="translate(241.297667, 131.064023) scale(-1, -1) rotate(30.000000) translate(-241.297667, -131.064023) "></path>
                    <path d="M591.253395,127.908759 L579.705031,127.812402 C578.710947,127.804108 577.89836,128.603249 577.890066,129.597333 C577.888014,129.843282 577.936389,130.087041 578.032205,130.313568 C579.475378,133.725499 581.922219,135.431464 585.372726,135.431464 C588.797148,135.431464 591.294185,133.781624 592.863837,130.481943 L592.863854,130.481952 C593.290901,129.584226 592.90934,128.510285 592.011614,128.083239 C591.774616,127.970499 591.515832,127.910948 591.253395,127.908759 Z" id="Path-7-Copy-24" fill="url(#linearGradient-2)" transform="translate(585.464410, 131.621901) scale(1, -1) rotate(30.000000) translate(-585.464410, -131.621901) "></path>
                    <path d="M292.063205,3.08054139 L282.674296,3.00003753 C282.122028,2.99530256 281.670488,3.43916567 281.665753,3.99143354 C281.66477,4.10613996 281.68353,4.22016043 281.721212,4.32850523 C282.738187,7.25255325 284.592153,8.71457726 287.283108,8.71457726 C289.961662,8.71457726 291.862234,7.29223144 292.984823,4.4475398 L292.984784,4.44752432 C293.187506,3.93381599 292.935403,3.35303393 292.421694,3.15031126 C292.307494,3.10524496 292.185972,3.08159395 292.063205,3.08054139 Z" id="Path-7-Copy-22" fill="url(#linearGradient-1)" transform="translate(287.360287, 5.857289) scale(-1, 1) rotate(30.000000) translate(-287.360287, -5.857289) "></path>
                    <path d="M11.0632055,282.080541 L1.67429615,282.000038 C1.12202828,281.995303 0.670488256,282.439166 0.665753278,282.991434 C0.66476982,283.10614 0.683529576,283.22016 0.721211588,283.328505 C1.7381871,286.252553 3.59215269,287.714577 6.28310836,287.714577 C8.96166208,287.714577 10.8622336,286.292231 11.9848229,283.44754 L11.9847836,283.447524 C12.1875063,282.933816 11.9354026,282.353034 11.4216943,282.150311 C11.3074943,282.105245 11.1859715,282.081594 11.0632055,282.080541 Z" id="Path-7-Copy-23" fill="url(#linearGradient-1)" transform="translate(6.360287, 284.857289) scale(-1, -1) rotate(30.000000) translate(-6.360287, -284.857289) "></path>
                    <path d="M527.328072,293.464026 L516.023612,293.351332 C515.471354,293.345827 515.019198,293.789057 515.013693,294.341314 C515.012793,294.431537 515.024109,294.521467 515.047331,294.608655 C516.177019,298.850111 518.35087,300.970839 521.568884,300.970839 C524.77887,300.970839 527.01418,298.898893 528.274813,294.755001 L528.274793,294.754995 C528.43553,294.22663 528.137508,293.668003 527.609143,293.507266 C527.517991,293.479537 527.423344,293.464976 527.328072,293.464026 Z" id="Path-7-Copy-21" fill="url(#linearGradient-1)" transform="translate(521.665996, 297.161060) scale(1, -1) rotate(30.000000) translate(-521.665996, -297.161060) "></path>
                    <path d="M351.646432,15.8141765 L338.31112,15.3456078 C339.286479,19.7907117 341.46031,22.0132636 344.832615,22.0132636 C348.204919,22.0132636 350.476191,19.9469012 351.646432,15.8141765 Z" id="Path-7-Copy-17" stroke="url(#linearGradient-1)" stroke-width="1.8" stroke-linecap="round" stroke-linejoin="round" transform="translate(344.978776, 18.679436) rotate(30.000000) translate(-344.978776, -18.679436) "></path>
                    <polyline id="Path-8-Copy-12" stroke="url(#linearGradient-1)" stroke-width="2.2" stroke-linecap="round" stroke-linejoin="round" transform="translate(321.000000, 61.500000) scale(-1, -1) translate(-321.000000, -61.500000) " points="322.740862 52 313 58.5013772 327.134945 58.5013772 317.380033 64.8911759 329 64.8911759 322.740862 71"></polyline>
                    <polyline id="Path-8-Copy-13" stroke="url(#linearGradient-1)" stroke-width="2.2" stroke-linecap="round" stroke-linejoin="round" transform="translate(241.000000, 52.504430) scale(1, -1) translate(-241.000000, -52.504430) " points="242.088039 46.5044299 236 50.6105629 244.834341 50.6105629 238.737521 54.6462252 246 54.6462252 242.088039 58.5044299"></polyline>
                    <circle id="Oval-Copy-7" stroke="#DD0746" stroke-width="3" cx="209.5" cy="94.0044299" r="3.5"></circle>
                    <circle id="Oval-Copy-8" stroke="url(#linearGradient-2)" stroke-width="3" cx="570" cy="226.50443" r="3"></circle>
                    <circle id="Oval-Copy-10" stroke="url(#linearGradient-2)" stroke-width="3" cx="397" cy="329.50443" r="3"></circle>
                    <path d="M353.970228,123.341641 L359.211639,127.149749 C359.492029,127.353464 359.609356,127.714558 359.502256,128.044176 L357.500215,134.205824 C357.393116,134.535442 357.085951,134.75861 356.73937,134.75861 L350.26063,134.75861 C349.914049,134.75861 349.606884,134.535442 349.499785,134.205824 L347.497744,128.044176 C347.390644,127.714558 347.507971,127.353464 347.788361,127.149749 L353.029772,123.341641 C353.310162,123.137926 353.689838,123.137926 353.970228,123.341641 Z" id="Polygon-Copy-7" stroke="url(#linearGradient-3)" stroke-width="1.8" stroke-linecap="round" stroke-linejoin="bevel" transform="translate(353.500000, 129.500000) scale(1, -1) translate(-353.500000, -129.500000) "></path>
                    <path d="M114.759421,50.9187351 L118.660409,53.8668325 C119.266579,54.3249336 119.519821,55.1143228 119.293277,55.8395647 L117.774997,60.7000747 C117.540233,61.4516327 116.844242,61.9633826 116.05687,61.9633826 L111.291453,61.9633826 C110.504081,61.9633826 109.80809,61.4516327 109.573325,60.7000747 L108.055046,55.8395647 C107.828502,55.1143228 108.081744,54.3249336 108.687913,53.8668325 L112.588902,50.9187351 C113.231035,50.4334551 114.117288,50.4334551 114.759421,50.9187351 Z" id="Polygon-Copy-6" fill="url(#linearGradient-1)" transform="translate(113.674161, 56.259079) rotate(-25.000000) translate(-113.674161, -56.259079) "></path>
                    <path d="M617.66295,270.774417 L621.563938,273.722514 C622.170107,274.180615 622.423349,274.970004 622.196805,275.695246 L620.678526,280.555756 C620.443761,281.307314 619.74777,281.819064 618.960398,281.819064 L614.194981,281.819064 C613.40761,281.819064 612.711618,281.307314 612.476854,280.555756 L610.958574,275.695246 C610.73203,274.970004 610.985272,274.180615 611.591442,273.722514 L615.49243,270.774417 C616.134563,270.289137 617.020816,270.289137 617.66295,270.774417 Z" id="Polygon-Copy-11" fill="url(#linearGradient-1)" transform="translate(616.577690, 276.114761) rotate(-25.000000) translate(-616.577690, -276.114761) "></path>
                    <path d="M411.141006,102.484029 L414.089412,104.706714 C414.697128,105.164847 414.951043,105.955674 414.723613,106.681952 L413.570931,110.362926 C413.335776,111.11387 412.640086,111.625021 411.853183,111.625021 L408.261734,111.625021 C407.474832,111.625021 406.779141,111.11387 406.543986,110.362926 L405.391305,106.681952 C405.163874,105.955674 405.417789,105.164847 406.025505,104.706714 L408.973911,102.484029 C409.615352,102.000472 410.499565,102.000472 411.141006,102.484029 Z" id="Polygon-Copy-8" fill="url(#linearGradient-1)" transform="translate(410.057459, 106.873191) scale(-1, -1) rotate(75.000000) translate(-410.057459, -106.873191) "></path>
                    <path d="M124.517052,311.302052 C123.388881,317.010943 125.18512,319.865389 129.905768,319.865389" id="Path-4-Copy-9" stroke="url(#linearGradient-1)" stroke-width="3" stroke-linecap="round" transform="translate(127.048202, 315.583720) scale(-1, -1) rotate(45.000000) translate(-127.048202, -315.583720) "></path>
                    <path d="M470.342687,124.50443 C469.158283,130.50443 471.044054,133.50443 476,133.50443" id="Path-4-Copy-10" stroke="url(#linearGradient-1)" stroke-width="3" stroke-linecap="round" transform="translate(473.000000, 129.004430) scale(-1, 1) translate(-473.000000, -129.004430) "></path>
                </g>
            </g>
        </g>
    </g>
</svg>