<?xml version="1.0" encoding="UTF-8"?>
<svg width="305px" height="252px" viewBox="0 0 305 252" version="1.1" xmlns="http://www.w3.org/2000/svg" xmlns:xlink="http://www.w3.org/1999/xlink">
    <!-- Generator: Sketch 52.3 (67297) - http://www.bohemiancoding.com/sketch -->
    <title>Group 2</title>
    <desc>Created with Sketch.</desc>
    <defs>
        <linearGradient x1="0%" y1="50%" x2="100%" y2="50%" id="linearGradient-1">
            <stop stop-color="#DF1075" offset="0%"></stop>
            <stop stop-color="#DF103A" offset="77.6103252%"></stop>
            <stop stop-color="#DC0000" offset="100%"></stop>
        </linearGradient>
        <linearGradient x1="100%" y1="20.3020738%" x2="0%" y2="20.3020738%" id="linearGradient-2">
            <stop stop-color="#D0D0D0" offset="0%"></stop>
            <stop stop-color="#A3A3A3" offset="100%"></stop>
        </linearGradient>
    </defs>
    <g id="Page-1" stroke="none" stroke-width="1" fill="none" fill-rule="evenodd">
        <g id="10-sucess" transform="translate(-120.000000, -2851.000000)">
            <g id="Group-2-Copy-4" transform="translate(120.000000, 2812.000000)">
                <g id="Group-3">
                    <g id="Group-2" transform="translate(-56.000000, 39.000000)">
                        <path d="M337.133449,60 C336.693782,62.0071743 337.340527,62.8620098 339.073683,62.5645063 C340.80684,62.2670028 341.370472,63.4121674 340.764581,66" id="Path-2-Copy-7" stroke="url(#linearGradient-1)" stroke-width="3" stroke-linecap="round"></path>
                        <path d="M279.114229,45 C278.719428,48.3333333 279.348018,50 281,50" id="Path-4-Copy-12" stroke="url(#linearGradient-2)" stroke-width="5" stroke-linecap="round" transform="translate(280.000000, 47.500000) scale(-1, -1) translate(-280.000000, -47.500000) "></path>
                        <path d="M69.3410837,98.6242548 L65.6111089,103.542068 C65.4108595,103.806088 65.462556,104.182454 65.7265765,104.382703 C65.8066382,104.443427 65.9006688,104.483071 66.0000393,104.497996 L74.5220528,105.778011 C74.8497478,105.827231 75.1552979,105.601482 75.204518,105.273787 C75.2288302,105.111923 75.1859591,104.947153 75.0858406,104.817663 L70.2938019,98.6198355 C70.0911117,98.3576842 69.7142831,98.3094814 69.4521318,98.5121717 C69.4103434,98.5444817 69.3730046,98.5821685 69.3410837,98.6242548 Z" id="Path-5-Copy-10" fill="url(#linearGradient-1)" transform="translate(70.500000, 102.000000) scale(-1, -1) translate(-70.500000, -102.000000) "></path>
                        <path d="M214.593476,64.6090409 L212.626142,67.156569 C212.423604,67.4188381 212.472025,67.7956385 212.734294,67.9981764 C212.815646,68.0610003 212.911773,68.1018719 213.013458,68.1168724 L217.508301,68.7799463 C217.836124,68.8283064 218.141081,68.6017569 218.189441,68.2739339 C218.213514,68.1107455 218.169341,67.944844 218.067306,67.8152332 L215.539798,64.6046311 C215.334825,64.344261 214.957589,64.299353 214.697219,64.5043263 C214.658466,64.5348345 214.623622,64.5700047 214.593476,64.6090409 Z" id="Path-5-Copy-13" fill="url(#linearGradient-2)" transform="translate(215.500000, 66.500000) scale(-1, -1) translate(-215.500000, -66.500000) "></path>
                        <path d="M55.9987992,205.797413 L53.4742375,209.802047 C53.2975221,210.082365 53.3815088,210.452864 53.661827,210.62958 C53.7269438,210.67063 53.7993513,210.698767 53.8751004,210.712455 L59.6430613,211.754787 C59.9691505,211.813715 60.2812684,211.597137 60.3401962,211.271048 C60.3671866,211.121691 60.3365704,210.967655 60.2545156,210.839972 L57.0111164,205.793006 C56.8319673,205.514237 56.4607512,205.433479 56.181982,205.612628 C56.1081398,205.660082 56.0456087,205.72316 55.9987992,205.797413 Z" id="Path-5-Copy-15" fill="url(#linearGradient-2)"></path>
                        <polygon id="Path-5-Copy-9" stroke="url(#linearGradient-2)" stroke-width="1.8" stroke-linecap="round" stroke-linejoin="round" transform="translate(354.787603, 38.597869) scale(1, -1) rotate(-30.000000) translate(-354.787603, -38.597869) " points="354.339126 35.7406401 351.214672 40.2709154 358.360535 41.4550986"></polygon>
                        <polygon id="Path-5-Copy-19" stroke="url(#linearGradient-2)" stroke-width="1.8" stroke-linecap="round" stroke-linejoin="round" transform="translate(152.394353, 235.572265) scale(1, -1) rotate(145.000000) translate(-152.394353, -235.572265) " points="151.945651 232.714598 148.821802 237.245228 155.966904 238.429932"></polygon>
                        <path d="" id="Path-6-Copy-2" stroke="#DD0746"></path>
                        <path d="M134.831015,44.9429331 L120.550912,44.4376377 C121.59833,49.1460154 123.927614,51.5013479 127.538763,51.503635 C131.149911,51.5059221 133.580662,49.3190215 134.831015,44.9429331 Z" id="Path-7-Copy-15" stroke="url(#linearGradient-1)" stroke-width="1.8" stroke-linecap="round" stroke-linejoin="round" transform="translate(127.690964, 47.970637) scale(1, -1) rotate(120.000000) translate(-127.690964, -47.970637) "></path>
                        <path d="M218.801999,2.29850463 L212.498344,2.24851498 C211.946092,2.24413308 211.494851,2.68826982 211.490469,3.24052215 C211.489424,3.37225305 211.514417,3.50289229 211.564014,3.62493444 C212.350724,5.56078419 213.69272,6.52810868 215.590002,6.52690791 C217.472922,6.52571623 218.843929,5.58854584 219.703024,3.71539673 L219.703062,3.7154138 C219.933309,3.21338832 219.712989,2.6197639 219.210964,2.38951656 C219.082598,2.33064308 218.943217,2.29962515 218.801999,2.29850463 Z" id="Path-7-Copy-22" fill="url(#linearGradient-1)" transform="translate(215.642393, 4.387696) scale(-1, 1) rotate(30.000000) translate(-215.642393, -4.387696) "></path>
                        <path d="M263.874009,11.8461879 L253.871069,11.5012902 C254.6006,14.8327779 256.230192,16.4977213 258.759845,16.4961203 C261.289498,16.4945193 262.994219,14.9445418 263.874009,11.8461879 Z" id="Path-7-Copy-17" stroke="url(#linearGradient-1)" stroke-width="1.8" stroke-linecap="round" stroke-linejoin="round" transform="translate(258.872539, 13.998706) rotate(30.000000) translate(-258.872539, -13.998706) "></path>
                        <polyline id="Path-8-Copy-12" stroke="url(#linearGradient-1)" stroke-width="2.2" stroke-linecap="round" stroke-linejoin="round" transform="translate(241.000000, 46.000000) scale(-1, -1) translate(-241.000000, -46.000000) " points="242.305646 39 235 43.7904885 245.601209 43.7904885 238.285025 48.4987612 247 48.4987612 242.305646 53"></polyline>
                        <polyline id="Path-8-Copy-13" stroke="url(#linearGradient-1)" stroke-width="2.2" stroke-linecap="round" stroke-linejoin="round" transform="translate(180.500000, 39.000000) scale(1, -1) translate(-180.500000, -39.000000) " points="181.261627 35 177 37.737422 183.184038 37.737422 178.916264 40.4278635 184 40.4278635 181.261627 43"></polyline>
                        <circle id="Oval-Copy-7" stroke="#DD0746" stroke-width="3" cx="318.5" cy="131.5" r="2.5"></circle>
                        <circle id="Oval-Copy-10" stroke="url(#linearGradient-2)" stroke-width="3" cx="297.5" cy="247.5" r="2.5"></circle>
                        <path d="M296.37665,107.128771 L298.059554,108.398787 C298.666737,108.857002 298.920331,109.647437 298.693057,110.373369 L298.02118,112.519399 C297.786131,113.270165 297.090757,113.781311 296.304058,113.781598 L294.276621,113.78234 C293.489036,113.782628 292.792721,113.270861 292.557859,112.51911 L291.888101,110.375333 C291.66142,109.649769 291.914969,108.860018 292.521638,108.401999 L294.207806,107.128989 C294.849552,106.644488 295.734807,106.644399 296.37665,107.128771 Z" id="Polygon-Copy-8" fill="url(#linearGradient-1)" transform="translate(295.290740, 110.273946) scale(-1, -1) rotate(75.000000) translate(-295.290740, -110.273946) "></path>
                        <path d="M93.4426667,233.259525 C92.5935759,237.540966 93.9389241,239.680393 97.4787111,239.677807" id="Path-4-Copy-9" stroke="url(#linearGradient-1)" stroke-width="3" stroke-linecap="round" transform="translate(95.337487, 236.468666) scale(-1, -1) rotate(45.000000) translate(-95.337487, -236.468666) "></path>
                        <path d="M352.285573,93 C351.298569,97.6666667 352.870045,100 357,100" id="Path-4-Copy-10" stroke="url(#linearGradient-1)" stroke-width="3" stroke-linecap="round" transform="translate(354.500000, 96.500000) scale(-1, 1) translate(-354.500000, -96.500000) "></path>
                    </g>
                </g>
            </g>
        </g>
    </g>
</svg>